<mxfile host="app.diagrams.net" modified="2024-06-21T12:18:05.627Z" agent="Mozilla/5.0 (Windows NT 10.0; Win64; x64) AppleWebKit/537.36 (KHTML, like Gecko) Chrome/126.0.0.0 Safari/537.36 Edg/126.0.0.0" version="24.6.0" etag="-G0sn_aEy1I29FgT3DDl" type="gitlab">
  <diagram name="Page-1" id="j1ikGyuAORyCZLmj9sK2">
    <mxGraphModel>
      <root>
        <mxCell id="0" />
        <mxCell id="1" parent="0" />
      </root>
    </mxGraphModel>
  </diagram>
</mxfile>
